{"statusCode":200,"resultCode":"sucess","resultMsg":"sucess","resultInfo":{"picAddress":null,"jumpAddress":null,"startTime":null,"endTime":null,"status":null,"jumpType":null,"jumpId":null,"jumpCode":null,"jumpUrl":null,"content":null,"storeList":null,"finalPropValueNameAndIdAndScore":null,"pageModel":{"pageSize":12,"count":129,"pageNo":1,"totalPage":11,"rows":[[{"goodsId":"1061744","marketPrice":"188.0","goodsPrice":"229.0","goodsMsg":"佳沛 金奇异果 金果猕猴桃 整箱装 30-33粒","goodsImgPath":"http://Img.iblimg.com/photo-42/2000/36441143_200x200.jpg","comSid":"2000","supplierSid":"19448","mdmGoodsId":"20000826764001","proSellPoint":"","categoryid":"a207121","categoryBackId":null,"brandSid":"150917","productName":"佳沛金果猕猴桃(整箱装)","productSid":"849095","microShopCommission":null,"if7Refund":null,"actStartTime":"1557158400000","actEndTime":"1557763199000","actClassify":"4","actStart":"2019-05-07 00:00:00","actEnd":"2019-05-13 23:59:59","isStoreAvi":null,"storePrice":null,"customCategory":null,"shipOriginPlace":null,"placeOfOrgin":null,"customRate":null,"crossBorderType":null,"importPort":null,"infoMarchantName":"","infoMarchantSid":"","infoStoreSid":"","infoStoreName":"","goodsNum":"1","activityType":"13","isAvailable":"1","yunType":"1","subYunType":null,"activityCode":"BK13998","limitBuyPersonSum":"20","limitBuySum":"20","color":"","actSortOrder":1,"isMajorGoods":null,"labels":[],"systemScore":null,"totalEvaluate":null,"goodRatio":0.0,"bestSeller":null,"categorySearchInfo":null,"newGoods":null,"saleStockSum":null,"goodsType":"7","isMultiTypeBind":0,"promotion":null,"actReleasTime":"","basketLimit":null,"actPrePrice":"","hotPropValues":null,"boughtGood":null,"ptActivityType":null,"ptActivityCode":null,"ptActivityInfo":null,"activityTitle":null,"activityColor":null,"mdmCategorySid":null,"markStartTime":null,"markEndTime":null,"markFlag":null,"goodsSellPointInfo2":null,"unitPriceInfo":null,"goodsSign":null,"ydStoreSid":null,"ydStoreName":null}],[{"goodsId":"3883714","marketPrice":"299.0","goodsPrice":"499.0","goodsMsg":"SKG 4098 颈椎按摩器 颈部按摩仪 脖子牵引器 办公室护颈仪 热敷 富贵包 U型枕 充电便携 李佳琦同款 新一代护颈仪","goodsImgPath":"http://Img.iblimg.com/photo-42/3020/1961624475_200x200.jpeg","comSid":"3020","supplierSid":"-1","mdmGoodsId":"302010119861","proSellPoint":"【支持全国配送】oh my god~~~销售火爆...预售中,预计5月15号左右发货。","categoryid":"a211281","categoryBackId":null,"brandSid":"208364","productName":"SKG 4098 颈椎按摩器 颈部按摩仪 脖子牵引器 办公室护颈仪 热敷 富贵包 U型枕 充电便携  新一代护颈仪","productSid":"2107887","microShopCommission":null,"if7Refund":null,"actStartTime":"1557158400000","actEndTime":"1557763199000","actClassify":"4","actStart":"2019-05-07 00:00:00","actEnd":"2019-05-13 23:59:59","isStoreAvi":null,"storePrice":null,"customCategory":null,"shipOriginPlace":null,"placeOfOrgin":null,"customRate":null,"crossBorderType":null,"importPort":null,"infoMarchantName":"","infoMarchantSid":"","infoStoreSid":"","infoStoreName":"","goodsNum":"1","activityType":"13","isAvailable":"1","yunType":"1","subYunType":null,"activityCode":"BK13998","limitBuyPersonSum":"5","limitBuySum":"5","color":"","actSortOrder":2,"isMajorGoods":1,"labels":[],"systemScore":null,"totalEvaluate":null,"goodRatio":0.0,"bestSeller":null,"categorySearchInfo":null,"newGoods":null,"saleStockSum":null,"goodsType":"1","isMultiTypeBind":0,"promotion":null,"actReleasTime":"","basketLimit":null,"actPrePrice":"","hotPropValues":null,"boughtGood":null,"ptActivityType":null,"ptActivityCode":null,"ptActivityInfo":null,"activityTitle":null,"activityColor":null,"mdmCategorySid":null,"markStartTime":null,"markEndTime":null,"markFlag":null,"goodsSellPointInfo2":null,"unitPriceInfo":null,"goodsSign":null,"ydStoreSid":null,"ydStoreName":null}],[{"goodsId":"3906638","marketPrice":"199.0","goodsPrice":"1299.0","goodsMsg":"宜庭夏凉冬暖四季鹅毛枕（45*70）（对）","goodsImgPath":"http://img19.iblimg.com/mp-175/mp/goods/540707648_200x200.jpg","comSid":"1000","supplierSid":"-1","mdmGoodsId":"100029043442","proSellPoint":"","categoryid":"a212542","categoryBackId":null,"brandSid":"208602","productName":"宜庭夏凉冬暖四季鹅毛枕（45*70）（对）","productSid":"2116134","microShopCommission":null,"if7Refund":null,"actStartTime":"1557158400000","actEndTime":"1557763199000","actClassify":"4","actStart":"2019-05-07 00:00:00","actEnd":"2019-05-13 23:59:59","isStoreAvi":null,"storePrice":null,"customCategory":null,"shipOriginPlace":null,"placeOfOrgin":null,"customRate":null,"crossBorderType":null,"importPort":null,"infoMarchantName":"","infoMarchantSid":"518","infoStoreSid":"400010646","infoStoreName":"百股自营自营家具","goodsNum":"1","activityType":"13","isAvailable":"1","yunType":"1","subYunType":null,"activityCode":"BK13998","limitBuyPersonSum":"999","limitBuySum":"999","color":"","actSortOrder":3,"isMajorGoods":1,"labels":[],"systemScore":null,"totalEvaluate":null,"goodRatio":0.0,"bestSeller":null,"categorySearchInfo":null,"newGoods":null,"saleStockSum":null,"goodsType":"1","isMultiTypeBind":0,"promotion":null,"actReleasTime":"","basketLimit":null,"actPrePrice":"","hotPropValues":null,"boughtGood":null,"ptActivityType":null,"ptActivityCode":null,"ptActivityInfo":null,"activityTitle":null,"activityColor":null,"mdmCategorySid":null,"markStartTime":null,"markEndTime":null,"markFlag":null,"goodsSellPointInfo2":null,"unitPriceInfo":null,"goodsSign":null,"ydStoreSid":null,"ydStoreName":null}],[{"goodsId":"3111810","marketPrice":"29.9","goodsPrice":"35.0","goodsMsg":"光明米业 海丰香而糯大米 2kg ","goodsImgPath":"http://Img.iblimg.com/photo-42/2000/1462985592_200x200.jpg","comSid":"2000","supplierSid":"-1","mdmGoodsId":"20001133842001","proSellPoint":"买二免一新老包装随机发货  介意慎拍","categoryid":"a208059","categoryBackId":null,"brandSid":"157439","productName":"光明海丰香而糯大米","productSid":"1677103","microShopCommission":null,"if7Refund":null,"actStartTime":"1557158400000","actEndTime":"1557763199000","actClassify":"4","actStart":"2019-05-07 00:00:00","actEnd":"2019-05-13 23:59:59","isStoreAvi":null,"storePrice":null,"customCategory":null,"shipOriginPlace":null,"placeOfOrgin":null,"customRate":null,"crossBorderType":null,"importPort":null,"infoMarchantName":"","infoMarchantSid":"","infoStoreSid":"","infoStoreName":"","goodsNum":"1","activityType":"13","isAvailable":"1","yunType":"1","subYunType":null,"activityCode":"BK13998","limitBuyPersonSum":"20","limitBuySum":"20","color":"","actSortOrder":4,"isMajorGoods":1,"labels":[],"systemScore":null,"totalEvaluate":null,"goodRatio":0.0,"bestSeller":null,"categorySearchInfo":null,"newGoods":null,"saleStockSum":null,"goodsType":"1","isMultiTypeBind":0,"promotion":null,"actReleasTime":"","basketLimit":null,"actPrePrice":"","hotPropValues":null,"boughtGood":null,"ptActivityType":null,"ptActivityCode":null,"ptActivityInfo":null,"activityTitle":null,"activityColor":null,"mdmCategorySid":null,"markStartTime":null,"markEndTime":null,"markFlag":null,"goodsSellPointInfo2":null,"unitPriceInfo":null,"goodsSign":null,"ydStoreSid":null,"ydStoreName":null}],[{"goodsId":"3372960","marketPrice":"79.9","goodsPrice":"138.0","goodsMsg":"妙可维 全脂牛奶 1L*12/箱 波兰进口","goodsImgPath":"http://Img.iblimg.com/photo-42/3030/803974087_200x200.jpg","comSid":"3030","supplierSid":"-1","mdmGoodsId":"303010066661","proSellPoint":"此商品于5月7日起配送","categoryid":"a207358","categoryBackId":null,"brandSid":"159997","productName":"妙可维 全脂牛奶 1L*12/箱  波兰进口","productSid":"1819090","microShopCommission":null,"if7Refund":null,"actStartTime":"1557158400000","actEndTime":"1557763199000","actClassify":"4","actStart":"2019-05-07 00:00:00","actEnd":"2019-05-13 23:59:59","isStoreAvi":null,"storePrice":null,"customCategory":null,"shipOriginPlace":null,"placeOfOrgin":null,"customRate":null,"crossBorderType":null,"importPort":null,"infoMarchantName":"","infoMarchantSid":"","infoStoreSid":"","infoStoreName":"","goodsNum":"1","activityType":"13","isAvailable":"1","yunType":"1","subYunType":null,"activityCode":"BK13998","limitBuyPersonSum":"10","limitBuySum":"10","color":"","actSortOrder":4,"isMajorGoods":1,"labels":[],"systemScore":null,"totalEvaluate":null,"goodRatio":0.0,"bestSeller":null,"categorySearchInfo":null,"newGoods":null,"saleStockSum":null,"goodsType":"1","isMultiTypeBind":0,"promotion":null,"actReleasTime":"","basketLimit":null,"actPrePrice":"","hotPropValues":null,"boughtGood":null,"ptActivityType":null,"ptActivityCode":null,"ptActivityInfo":null,"activityTitle":null,"activityColor":null,"mdmCategorySid":null,"markStartTime":null,"markEndTime":null,"markFlag":null,"goodsSellPointInfo2":null,"unitPriceInfo":null,"goodsSign":null,"ydStoreSid":null,"ydStoreName":null}],[{"goodsId":"3506471","marketPrice":"28.8","goodsPrice":"60.0","goodsMsg":"得宝 抽取式面巾纸 6+2包90抽天然无香","goodsImgPath":"http://Img.iblimg.com/photo-42//223365221_200x200.JPG","comSid":"2000","supplierSid":"-1","mdmGoodsId":"20001082793001","proSellPoint":"","categoryid":"a208681","categoryBackId":null,"brandSid":"203738","productName":"得宝抽取式面巾纸6+2包90抽天然无香","productSid":"1870896","microShopCommission":null,"if7Refund":null,"actStartTime":"1557158400000","actEndTime":"1557763199000","actClassify":"4","actStart":"2019-05-07 00:00:00","actEnd":"2019-05-13 23:59:59","isStoreAvi":null,"storePrice":null,"customCategory":null,"shipOriginPlace":null,"placeOfOrgin":null,"customRate":null,"crossBorderType":null,"importPort":null,"infoMarchantName":"","infoMarchantSid":"","infoStoreSid":"","infoStoreName":"","goodsNum":"1","activityType":"13","isAvailable":"1","yunType":"1","subYunType":null,"activityCode":"BK13998","limitBuyPersonSum":"100","limitBuySum":"100","color":"","actSortOrder":6,"isMajorGoods":null,"labels":[],"systemScore":null,"totalEvaluate":null,"goodRatio":0.0,"bestSeller":null,"categorySearchInfo":null,"newGoods":null,"saleStockSum":null,"goodsType":"1","isMultiTypeBind":0,"promotion":null,"actReleasTime":"","basketLimit":null,"actPrePrice":"","hotPropValues":null,"boughtGood":null,"ptActivityType":null,"ptActivityCode":null,"ptActivityInfo":null,"activityTitle":null,"activityColor":null,"mdmCategorySid":null,"markStartTime":null,"markEndTime":null,"markFlag":null,"goodsSellPointInfo2":null,"unitPriceInfo":null,"goodsSign":null,"ydStoreSid":null,"ydStoreName":null}],[{"goodsId":"3603718","marketPrice":"175.0","goodsPrice":"375.7","goodsMsg":"碧然德（BRITA） 6只装净水滤芯","goodsImgPath":"http://Img.iblimg.com/photo-42/3020/869768495_200x200.jpg","comSid":"3020","supplierSid":"-1","mdmGoodsId":"302010086791","proSellPoint":"","categoryid":"a208778","categoryBackId":null,"brandSid":"209491","productName":"碧然德（BRITA） 净水滤芯","productSid":"1946261","microShopCommission":null,"if7Refund":null,"actStartTime":"1557158400000","actEndTime":"1557763199000","actClassify":"4","actStart":"2019-05-07 00:00:00","actEnd":"2019-05-13 23:59:59","isStoreAvi":null,"storePrice":null,"customCategory":null,"shipOriginPlace":null,"placeOfOrgin":null,"customRate":null,"crossBorderType":null,"importPort":null,"infoMarchantName":"","infoMarchantSid":"","infoStoreSid":"","infoStoreName":"","goodsNum":"1","activityType":"13","isAvailable":"1","yunType":"1","subYunType":null,"activityCode":"BK13998","limitBuyPersonSum":"10","limitBuySum":"10","color":"6只","actSortOrder":7,"isMajorGoods":1,"labels":[],"systemScore":null,"totalEvaluate":null,"goodRatio":0.0,"bestSeller":null,"categorySearchInfo":null,"newGoods":null,"saleStockSum":null,"goodsType":"1","isMultiTypeBind":0,"promotion":null,"actReleasTime":"","basketLimit":null,"actPrePrice":"","hotPropValues":null,"boughtGood":null,"ptActivityType":null,"ptActivityCode":null,"ptActivityInfo":null,"activityTitle":null,"activityColor":null,"mdmCategorySid":null,"markStartTime":null,"markEndTime":null,"markFlag":null,"goodsSellPointInfo2":null,"unitPriceInfo":null,"goodsSign":null,"ydStoreSid":null,"ydStoreName":null}],[{"goodsId":"317214","marketPrice":"69.8","goodsPrice":"78.5","goodsMsg":"金龙鱼 玉米油  5l","goodsImgPath":"http://Img.iblimg.com/photo-42/2000/461553666_200x200.jpg","comSid":"2000","supplierSid":"-1","mdmGoodsId":"20000424702001","proSellPoint":"新老包装随机发货  介意慎拍","categoryid":"a208066","categoryBackId":null,"brandSid":"208999","productName":"金龙鱼玉米油","productSid":"472478","microShopCommission":null,"if7Refund":null,"actStartTime":"1557158400000","actEndTime":"1557763199000","actClassify":"4","actStart":"2019-05-07 00:00:00","actEnd":"2019-05-13 23:59:59","isStoreAvi":null,"storePrice":null,"customCategory":null,"shipOriginPlace":null,"placeOfOrgin":null,"customRate":null,"crossBorderType":null,"importPort":null,"infoMarchantName":"","infoMarchantSid":"","infoStoreSid":"","infoStoreName":"","goodsNum":"1","activityType":"13","isAvailable":"1","yunType":"1","subYunType":null,"activityCode":"BK13998","limitBuyPersonSum":"20","limitBuySum":"20","color":"","actSortOrder":8,"isMajorGoods":1,"labels":[],"systemScore":null,"totalEvaluate":null,"goodRatio":0.0,"bestSeller":null,"categorySearchInfo":null,"newGoods":null,"saleStockSum":null,"goodsType":"1","isMultiTypeBind":0,"promotion":null,"actReleasTime":"","basketLimit":null,"actPrePrice":"","hotPropValues":null,"boughtGood":null,"ptActivityType":null,"ptActivityCode":null,"ptActivityInfo":null,"activityTitle":null,"activityColor":null,"mdmCategorySid":null,"markStartTime":null,"markEndTime":null,"markFlag":null,"goodsSellPointInfo2":null,"unitPriceInfo":null,"goodsSign":null,"ydStoreSid":null,"ydStoreName":null}],[{"goodsId":"3211143","marketPrice":"19.0","goodsPrice":"24.0","goodsMsg":"可口可乐 零度可乐 300ml*12","goodsImgPath":"http://Img.iblimg.com/photo-42/2000/697366084_200x200.jpg","comSid":"2000","supplierSid":"-1","mdmGoodsId":"20001120986001","proSellPoint":"","categoryid":"a207688","categoryBackId":null,"brandSid":"209713","productName":"可口可乐零度可乐","productSid":"1735971","microShopCommission":null,"if7Refund":null,"actStartTime":"1557158400000","actEndTime":"1557763199000","actClassify":"4","actStart":"2019-05-07 00:00:00","actEnd":"2019-05-13 23:59:59","isStoreAvi":null,"storePrice":null,"customCategory":null,"shipOriginPlace":null,"placeOfOrgin":null,"customRate":null,"crossBorderType":null,"importPort":null,"infoMarchantName":"","infoMarchantSid":"","infoStoreSid":"","infoStoreName":"","goodsNum":"1","activityType":"13","isAvailable":"1","yunType":"1","subYunType":null,"activityCode":"BK13998","limitBuyPersonSum":"50","limitBuySum":"50","color":"","actSortOrder":9,"isMajorGoods":null,"labels":[],"systemScore":null,"totalEvaluate":null,"goodRatio":0.0,"bestSeller":null,"categorySearchInfo":null,"newGoods":null,"saleStockSum":null,"goodsType":"1","isMultiTypeBind":0,"promotion":null,"actReleasTime":"","basketLimit":null,"actPrePrice":"","hotPropValues":null,"boughtGood":null,"ptActivityType":null,"ptActivityCode":null,"ptActivityInfo":null,"activityTitle":null,"activityColor":null,"mdmCategorySid":null,"markStartTime":null,"markEndTime":null,"markFlag":null,"goodsSellPointInfo2":null,"unitPriceInfo":null,"goodsSign":null,"ydStoreSid":null,"ydStoreName":null}],[{"goodsId":"3769351","marketPrice":"49.5","goodsPrice":"76.0","goodsMsg":"蒙牛 特仑苏纯牛奶苗条装250ml×12盒","goodsImgPath":"http://Img.iblimg.com/photo-42/3060/1200773630_200x200.jpg","comSid":"3060","supplierSid":"-1","mdmGoodsId":"3060203367","proSellPoint":"","categoryid":"a207358","categoryBackId":null,"brandSid":"207863","productName":"蒙牛特仑苏纯牛奶苗条装250ml×12盒","productSid":"2033457","microShopCommission":null,"if7Refund":null,"actStartTime":"1557158400000","actEndTime":"1557763199000","actClassify":"4","actStart":"2019-05-07 00:00:00","actEnd":"2019-05-13 23:59:59","isStoreAvi":null,"storePrice":null,"customCategory":null,"shipOriginPlace":null,"placeOfOrgin":null,"customRate":null,"crossBorderType":null,"importPort":null,"infoMarchantName":"","infoMarchantSid":"","infoStoreSid":"","infoStoreName":"","goodsNum":"1","activityType":"13","isAvailable":"1","yunType":"1","subYunType":null,"activityCode":"BK13998","limitBuyPersonSum":"999","limitBuySum":"999","color":"","actSortOrder":10,"isMajorGoods":1,"labels":[],"systemScore":null,"totalEvaluate":null,"goodRatio":0.0,"bestSeller":null,"categorySearchInfo":null,"newGoods":null,"saleStockSum":null,"goodsType":"16","isMultiTypeBind":0,"promotion":null,"actReleasTime":"","basketLimit":null,"actPrePrice":"","hotPropValues":null,"boughtGood":null,"ptActivityType":null,"ptActivityCode":null,"ptActivityInfo":null,"activityTitle":null,"activityColor":null,"mdmCategorySid":null,"markStartTime":null,"markEndTime":null,"markFlag":null,"goodsSellPointInfo2":null,"unitPriceInfo":null,"goodsSign":null,"ydStoreSid":null,"ydStoreName":null}],[{"goodsId":"264681","marketPrice":"49.5","goodsPrice":"72.0","goodsMsg":"伊利 安慕希 希腊风味酸奶 205g*12","goodsImgPath":"http://Img34.iblimg.com/goods-16/2000/2016/10/SP_2000_20000190982001_01_10006.jpg","comSid":"2000","supplierSid":"15688","mdmGoodsId":"20000190982001","proSellPoint":"新老包装，随机发货","categoryid":"a207694","categoryBackId":null,"brandSid":"208239","productName":"安慕希希腊酸奶","productSid":"449995","microShopCommission":null,"if7Refund":null,"actStartTime":"1557158400000","actEndTime":"1557763199000","actClassify":"4","actStart":"2019-05-07 00:00:00","actEnd":"2019-05-13 23:59:59","isStoreAvi":null,"storePrice":null,"customCategory":null,"shipOriginPlace":null,"placeOfOrgin":null,"customRate":null,"crossBorderType":null,"importPort":null,"infoMarchantName":"","infoMarchantSid":"","infoStoreSid":"","infoStoreName":"","goodsNum":"1","activityType":"13","isAvailable":"1","yunType":"1","subYunType":null,"activityCode":"BK13998","limitBuyPersonSum":"700","limitBuySum":"700","color":"","actSortOrder":12,"isMajorGoods":1,"labels":[],"systemScore":null,"totalEvaluate":null,"goodRatio":0.0,"bestSeller":null,"categorySearchInfo":null,"newGoods":null,"saleStockSum":null,"goodsType":"1","isMultiTypeBind":0,"promotion":null,"actReleasTime":"","basketLimit":null,"actPrePrice":"","hotPropValues":null,"boughtGood":null,"ptActivityType":null,"ptActivityCode":null,"ptActivityInfo":null,"activityTitle":null,"activityColor":null,"mdmCategorySid":null,"markStartTime":null,"markEndTime":null,"markFlag":null,"goodsSellPointInfo2":null,"unitPriceInfo":null,"goodsSign":null,"ydStoreSid":null,"ydStoreName":null}],[{"goodsId":"67067","marketPrice":"8.9","goodsPrice":"18.6","goodsMsg":"广合 腐乳 微辣 335g","goodsImgPath":"http://Img.iblimg.com/photo-42//1895323611_200x200.jpg","comSid":"2000","supplierSid":"18574","mdmGoodsId":"20000066059001","proSellPoint":"新老包装随机发货","categoryid":"a207834","categoryBackId":null,"brandSid":"208131","productName":"广合乳腐","productSid":"264823","microShopCommission":null,"if7Refund":null,"actStartTime":"1557158400000","actEndTime":"1557763199000","actClassify":"4","actStart":"2019-05-07 00:00:00","actEnd":"2019-05-13 23:59:59","isStoreAvi":null,"storePrice":null,"customCategory":null,"shipOriginPlace":null,"placeOfOrgin":null,"customRate":null,"crossBorderType":null,"importPort":null,"infoMarchantName":"","infoMarchantSid":"","infoStoreSid":"","infoStoreName":"","goodsNum":"1","activityType":"13","isAvailable":"1","yunType":"1","subYunType":null,"activityCode":"BK13998","limitBuyPersonSum":"20","limitBuySum":"20","color":"","actSortOrder":99,"isMajorGoods":1,"labels":[],"systemScore":null,"totalEvaluate":null,"goodRatio":0.0,"bestSeller":null,"categorySearchInfo":null,"newGoods":null,"saleStockSum":null,"goodsType":"1","isMultiTypeBind":0,"promotion":null,"actReleasTime":"","basketLimit":null,"actPrePrice":"","hotPropValues":null,"boughtGood":null,"ptActivityType":null,"ptActivityCode":null,"ptActivityInfo":null,"activityTitle":null,"activityColor":null,"mdmCategorySid":null,"markStartTime":null,"markEndTime":null,"markFlag":null,"goodsSellPointInfo2":null,"unitPriceInfo":null,"goodsSign":null,"ydStoreSid":null,"ydStoreName":null}]],"params":null},"recommendationword":null}}